lab3andlab4/waveform.vcd
$version Generated by VerilatedVcd $end
$timescale 1s $end

 $scope module TOP $end
  $var wire  1 +! clk $end
  $var wire 32 -! r[0] [31:0] $end
  $var wire 32 7! r[10] [31:0] $end
  $var wire 32 8! r[11] [31:0] $end
  $var wire 32 9! r[12] [31:0] $end
  $var wire 32 :! r[13] [31:0] $end
  $var wire 32 ;! r[14] [31:0] $end
  $var wire 32 <! r[15] [31:0] $end
  $var wire 32 =! r[16] [31:0] $end
  $var wire 32 >! r[17] [31:0] $end
  $var wire 32 ?! r[18] [31:0] $end
  $var wire 32 @! r[19] [31:0] $end
  $var wire 32 .! r[1] [31:0] $end
  $var wire 32 A! r[20] [31:0] $end
  $var wire 32 B! r[21] [31:0] $end
  $var wire 32 C! r[22] [31:0] $end
  $var wire 32 D! r[23] [31:0] $end
  $var wire 32 E! r[24] [31:0] $end
  $var wire 32 F! r[25] [31:0] $end
  $var wire 32 G! r[26] [31:0] $end
  $var wire 32 H! r[27] [31:0] $end
  $var wire 32 I! r[28] [31:0] $end
  $var wire 32 J! r[29] [31:0] $end
  $var wire 32 /! r[2] [31:0] $end
  $var wire 32 K! r[30] [31:0] $end
  $var wire 32 L! r[31] [31:0] $end
  $var wire 32 0! r[3] [31:0] $end
  $var wire 32 1! r[4] [31:0] $end
  $var wire 32 2! r[5] [31:0] $end
  $var wire 32 3! r[6] [31:0] $end
  $var wire 32 4! r[7] [31:0] $end
  $var wire 32 5! r[8] [31:0] $end
  $var wire 32 6! r[9] [31:0] $end
  $var wire  1 ,! start $end
  $scope module PipelineCPU $end
   $var wire  4 < Ex_ALUCtl [3:0] $end
   $var wire 32 z Ex_ALUOut [31:0] $end
   $var wire  4 ( Ex_BranchCtl [3:0] $end
   $var wire  1 N! Ex_BranchOut $end
   $var wire  5 r Ex_RegRd [4:0] $end
   $var wire  5 8 Ex_RegRs1 [4:0] $end
   $var wire  5 9 Ex_RegRs2 [4:0] $end
   $var wire  1 / Ex_branch $end
   $var wire 32 : Ex_imm [31:0] $end
   $var wire  1 ) Ex_immUse $end
   $var wire  1 0 Ex_jump $end
   $var wire  1 j Ex_memRead $end
   $var wire  1 - Ex_memWrite $end
   $var wire  1 * Ex_memtoReg $end
   $var wire 32 $ Ex_pc [31:0] $end
   $var wire  1 3 Ex_pcUse $end
   $var wire 32 4 Ex_readData1 [31:0] $end
   $var wire 32 5 Ex_readData2 [31:0] $end
   $var wire  1 f Ex_regWrite $end
   $var wire  4 | ID_ALUCtl [3:0] $end
   $var wire  2 p ID_ALUOp [1:0] $end
   $var wire  4 b ID_BranchCtl [3:0] $end
   $var wire  1 "! ID_Ex_flush $end
   $var wire  1 m ID_branch $end
   $var wire 32 u ID_imm [31:0] $end
   $var wire  1 c ID_immUse $end
   $var wire 32 a ID_instruction [31:0] $end
   $var wire  1 n ID_jump $end
   $var wire  1 i ID_memRead $end
   $var wire  1 l ID_memWrite $end
   $var wire  1 d ID_memtoReg $end
   $var wire 32 # ID_pc [31:0] $end
   $var wire  1 o ID_pcUse $end
   $var wire 32 O! ID_readData1 [31:0] $end
   $var wire 32 P! ID_readData2 [31:0] $end
   $var wire  1 e ID_regWrite $end
   $var wire  1 !! IF_ID_flush $end
   $var wire  1 #! IF_ID_freeze $end
   $var wire 32 ` IF_instruction [31:0] $end
   $var wire 32 ^ IF_pc [31:0] $end
   $var wire 32 _ IF_pc_add4 [31:0] $end
   $var wire 32 M! IF_pc_mux [31:0] $end
   $var wire 32 { Mem_ALUOut [31:0] $end
   $var wire  5 s Mem_RegRd [4:0] $end
   $var wire  1 1 Mem_jump $end
   $var wire  1 k Mem_memRead $end
   $var wire  1 . Mem_memWrite $end
   $var wire  1 + Mem_memtoReg $end
   $var wire 32 % Mem_pc [31:0] $end
   $var wire 32 Q! Mem_readData3 [31:0] $end
   $var wire  1 g Mem_regWrite $end
   $var wire 32 6 Mem_rs2_Data [31:0] $end
   $var wire 32 ; Wb_ALUOut [31:0] $end
   $var wire  5 t Wb_RegRd [4:0] $end
   $var wire  1 2 Wb_jump $end
   $var wire  1 , Wb_memtoReg $end
   $var wire 32 & Wb_pc [31:0] $end
   $var wire 32 ' Wb_pc_add4 [31:0] $end
   $var wire 32 7 Wb_readData3 [31:0] $end
   $var wire  1 h Wb_regWrite $end
   $var wire 32 q Wb_writeData [31:0] $end
   $var wire 32 v aluSrc1 [31:0] $end
   $var wire 32 w aluSrc2 [31:0] $end
   $var wire  1 +! clk $end
   $var wire  2 } forwardA [1:0] $end
   $var wire  2 ~ forwardB [1:0] $end
   $var wire 32 = out3 [31:0] $end
   $var wire  1 $! pc_freeze $end
   $var wire 32 R! pc_out [31:0] $end
   $var wire 32 -! r[0] [31:0] $end
   $var wire 32 7! r[10] [31:0] $end
   $var wire 32 8! r[11] [31:0] $end
   $var wire 32 9! r[12] [31:0] $end
   $var wire 32 :! r[13] [31:0] $end
   $var wire 32 ;! r[14] [31:0] $end
   $var wire 32 <! r[15] [31:0] $end
   $var wire 32 =! r[16] [31:0] $end
   $var wire 32 >! r[17] [31:0] $end
   $var wire 32 ?! r[18] [31:0] $end
   $var wire 32 @! r[19] [31:0] $end
   $var wire 32 .! r[1] [31:0] $end
   $var wire 32 A! r[20] [31:0] $end
   $var wire 32 B! r[21] [31:0] $end
   $var wire 32 C! r[22] [31:0] $end
   $var wire 32 D! r[23] [31:0] $end
   $var wire 32 E! r[24] [31:0] $end
   $var wire 32 F! r[25] [31:0] $end
   $var wire 32 G! r[26] [31:0] $end
   $var wire 32 H! r[27] [31:0] $end
   $var wire 32 I! r[28] [31:0] $end
   $var wire 32 J! r[29] [31:0] $end
   $var wire 32 /! r[2] [31:0] $end
   $var wire 32 K! r[30] [31:0] $end
   $var wire 32 L! r[31] [31:0] $end
   $var wire 32 0! r[3] [31:0] $end
   $var wire 32 1! r[4] [31:0] $end
   $var wire 32 2! r[5] [31:0] $end
   $var wire 32 3! r[6] [31:0] $end
   $var wire 32 4! r[7] [31:0] $end
   $var wire 32 5! r[8] [31:0] $end
   $var wire 32 6! r[9] [31:0] $end
   $var wire 32 x rs1_Data [31:0] $end
   $var wire 32 y rs2_Data [31:0] $end
   $var wire  1 ,! start $end
   $scope module m_ALU $end
    $var wire 32 v A [31:0] $end
    $var wire  4 < ALUCtl [3:0] $end
    $var wire 32 z ALUOut [31:0] $end
    $var wire 32 w B [31:0] $end
   $upscope $end
   $scope module m_ALU_Branch_Ctrl $end
    $var wire  4 | ALUCtl [3:0] $end
    $var wire  2 p ALUOp [1:0] $end
    $var wire  4 b BranchCtl [3:0] $end
    $var wire  3 &! funct3 [2:0] $end
    $var wire  1 %! funct7 $end
   $upscope $end
   $scope module m_Adder_1 $end
    $var wire 32 ^ a [31:0] $end
    $var wire 32 T! b [31:0] $end
    $var wire 32 _ sum [31:0] $end
   $upscope $end
   $scope module m_Adder_2 $end
    $var wire 32 & a [31:0] $end
    $var wire 32 T! b [31:0] $end
    $var wire 32 ' sum [31:0] $end
   $upscope $end
   $scope module m_BranchComp $end
    $var wire 32 x A [31:0] $end
    $var wire 32 y B [31:0] $end
    $var wire  4 ( BranchCtl [3:0] $end
    $var wire  1 N! BranchOut $end
   $upscope $end
   $scope module m_Control $end
    $var wire  2 p ALUOp [1:0] $end
    $var wire  1 m branch $end
    $var wire  1 c immUse $end
    $var wire  1 n jump $end
    $var wire  1 i memRead $end
    $var wire  1 l memWrite $end
    $var wire  1 d memtoReg $end
    $var wire  7 '! opcode [6:0] $end
    $var wire  1 o pcUse $end
    $var wire  1 e regWrite $end
   $upscope $end
   $scope module m_DataMemory $end
    $var wire 32 { address [31:0] $end
    $var wire  1 +! clk $end
    $var wire  1 k memRead $end
    $var wire  1 . memWrite $end
    $var wire 32 Q! readData [31:0] $end
    $var wire  1 ,! rst $end
    $var wire 32 6 writeData [31:0] $end
   $upscope $end
   $scope module m_Ex_Mem $end
    $var wire 32 z Ex_ALUOut [31:0] $end
    $var wire  5 r Ex_RegRd [4:0] $end
    $var wire  1 0 Ex_jump $end
    $var wire  1 j Ex_memRead $end
    $var wire  1 - Ex_memWrite $end
    $var wire  1 * Ex_memtoReg $end
    $var wire 32 $ Ex_pc [31:0] $end
    $var wire 32 y Ex_readData2 [31:0] $end
    $var wire  1 f Ex_regWrite $end
    $var wire 32 { Mem_ALUOut [31:0] $end
    $var wire  5 s Mem_RegRd [4:0] $end
    $var wire  1 1 Mem_jump $end
    $var wire  1 k Mem_memRead $end
    $var wire  1 . Mem_memWrite $end
    $var wire  1 + Mem_memtoReg $end
    $var wire 32 % Mem_pc [31:0] $end
    $var wire 32 6 Mem_readData2 [31:0] $end
    $var wire  1 g Mem_regWrite $end
    $var wire  1 +! clk $end
    $var wire  1 U! flush $end
    $var wire  1 ,! rst $end
   $upscope $end
   $scope module m_ForwardUnit $end
    $var wire  5 8 Ex_RegRs1 [4:0] $end
    $var wire  5 9 Ex_RegRs2 [4:0] $end
    $var wire  5 s Mem_RegRd [4:0] $end
    $var wire  1 g Mem_regWrite $end
    $var wire  5 t Wb_RegRd [4:0] $end
    $var wire  1 h Wb_regWrite $end
    $var wire  2 } forwardA [1:0] $end
    $var wire  2 ~ forwardB [1:0] $end
   $upscope $end
   $scope module m_HazardDetectUnit $end
    $var wire  5 r Ex_RegRd [4:0] $end
    $var wire  1 !! Ex_jump_or_branch $end
    $var wire  1 j Ex_memRead $end
    $var wire  1 "! ID_Ex_flush $end
    $var wire  5 (! ID_RegRs1 [4:0] $end
    $var wire  5 )! ID_RegRs2 [4:0] $end
    $var wire  1 !! IF_ID_flush $end
    $var wire  1 #! IF_ID_freeze $end
    $var wire  1 $! pc_freeze $end
   $upscope $end
   $scope module m_ID_Ex $end
    $var wire  4 < Ex_ALUCtl [3:0] $end
    $var wire  4 ( Ex_BranchCtl [3:0] $end
    $var wire  5 r Ex_RegRd [4:0] $end
    $var wire  5 8 Ex_RegRs1 [4:0] $end
    $var wire  5 9 Ex_RegRs2 [4:0] $end
    $var wire  1 / Ex_branch $end
    $var wire 32 : Ex_imm [31:0] $end
    $var wire  1 ) Ex_immUse $end
    $var wire  1 0 Ex_jump $end
    $var wire  1 j Ex_memRead $end
    $var wire  1 - Ex_memWrite $end
    $var wire  1 * Ex_memtoReg $end
    $var wire 32 $ Ex_pc [31:0] $end
    $var wire  1 3 Ex_pcUse $end
    $var wire 32 4 Ex_readData1 [31:0] $end
    $var wire 32 5 Ex_readData2 [31:0] $end
    $var wire  1 f Ex_regWrite $end
    $var wire  4 | ID_ALUCtl [3:0] $end
    $var wire  4 b ID_BranchCtl [3:0] $end
    $var wire  5 *! ID_RegRd [4:0] $end
    $var wire  5 (! ID_RegRs1 [4:0] $end
    $var wire  5 )! ID_RegRs2 [4:0] $end
    $var wire  1 m ID_branch $end
    $var wire 32 u ID_imm [31:0] $end
    $var wire  1 c ID_immUse $end
    $var wire  1 n ID_jump $end
    $var wire  1 i ID_memRead $end
    $var wire  1 l ID_memWrite $end
    $var wire  1 d ID_memtoReg $end
    $var wire 32 # ID_pc [31:0] $end
    $var wire  1 o ID_pcUse $end
    $var wire 32 O! ID_readData1 [31:0] $end
    $var wire 32 P! ID_readData2 [31:0] $end
    $var wire  1 e ID_regWrite $end
    $var wire  1 +! clk $end
    $var wire  1 "! flush $end
    $var wire  1 ,! rst $end
   $upscope $end
   $scope module m_IF_ID $end
    $var wire 32 a ID_inst [31:0] $end
    $var wire 32 a ID_inst_i [31:0] $end
    $var wire 32 # ID_pc [31:0] $end
    $var wire 32 # ID_pc_i [31:0] $end
    $var wire 32 ` IF_inst [31:0] $end
    $var wire 32 ^ IF_pc [31:0] $end
    $var wire  1 +! clk $end
    $var wire  1 !! flush $end
    $var wire  1 #! freeze $end
    $var wire  1 ,! rst $end
   $upscope $end
   $scope module m_ImmGen $end
    $var wire 32 u imm [31:0] $end
    $var wire 32 a inst [31:0] $end
    $var wire  7 '! opcode [6:0] $end
   $upscope $end
   $scope module m_InstMem $end
    $var wire 32 ` inst [31:0] $end
    $var wire 32 ^ readAddr [31:0] $end
   $upscope $end
   $scope module m_Mem_Wb $end
    $var wire 32 { Mem_ALUOut [31:0] $end
    $var wire  5 s Mem_RegRd [4:0] $end
    $var wire  1 1 Mem_jump $end
    $var wire  1 + Mem_memtoReg $end
    $var wire 32 % Mem_pc [31:0] $end
    $var wire 32 Q! Mem_readData3 [31:0] $end
    $var wire  1 g Mem_regWrite $end
    $var wire 32 ; Wb_ALUOut [31:0] $end
    $var wire  5 t Wb_RegRd [4:0] $end
    $var wire  1 2 Wb_jump $end
    $var wire  1 , Wb_memtoReg $end
    $var wire 32 & Wb_pc [31:0] $end
    $var wire 32 7 Wb_readData3 [31:0] $end
    $var wire  1 h Wb_regWrite $end
    $var wire  1 +! clk $end
    $var wire  1 U! flush $end
    $var wire  1 ,! rst $end
   $upscope $end
   $scope module m_Mux1_ALUSrc1 $end
    $var wire 32 x out [31:0] $end
    $var wire 32 4 s0 [31:0] $end
    $var wire 32 q s1 [31:0] $end
    $var wire 32 { s2 [31:0] $end
    $var wire  2 } sel [1:0] $end
    $var wire 32 V! size [31:0] $end
   $upscope $end
   $scope module m_Mux1_ALUSrc2 $end
    $var wire 32 y out [31:0] $end
    $var wire 32 5 s0 [31:0] $end
    $var wire 32 q s1 [31:0] $end
    $var wire 32 { s2 [31:0] $end
    $var wire  2 ~ sel [1:0] $end
    $var wire 32 V! size [31:0] $end
   $upscope $end
   $scope module m_Mux1_PC $end
    $var wire 32 R! out [31:0] $end
    $var wire 32 _ s0 [31:0] $end
    $var wire 32 z s1 [31:0] $end
    $var wire  1 S! sel $end
    $var wire 32 V! size [31:0] $end
   $upscope $end
   $scope module m_Mux1_WriteData $end
    $var wire 32 = out [31:0] $end
    $var wire 32 ; s0 [31:0] $end
    $var wire 32 7 s1 [31:0] $end
    $var wire  1 , sel $end
    $var wire 32 V! size [31:0] $end
   $upscope $end
   $scope module m_Mux2_ALUSrc1 $end
    $var wire 32 v out [31:0] $end
    $var wire 32 x s0 [31:0] $end
    $var wire 32 $ s1 [31:0] $end
    $var wire  1 3 sel $end
    $var wire 32 V! size [31:0] $end
   $upscope $end
   $scope module m_Mux2_ALUSrc2 $end
    $var wire 32 w out [31:0] $end
    $var wire 32 y s0 [31:0] $end
    $var wire 32 : s1 [31:0] $end
    $var wire  1 ) sel $end
    $var wire 32 V! size [31:0] $end
   $upscope $end
   $scope module m_Mux2_PC $end
    $var wire 32 M! out [31:0] $end
    $var wire 32 R! s0 [31:0] $end
    $var wire 32 ^ s1 [31:0] $end
    $var wire  1 $! sel $end
    $var wire 32 V! size [31:0] $end
   $upscope $end
   $scope module m_Mux2_WriteData $end
    $var wire 32 q out [31:0] $end
    $var wire 32 = s0 [31:0] $end
    $var wire 32 ' s1 [31:0] $end
    $var wire  1 2 sel $end
    $var wire 32 V! size [31:0] $end
   $upscope $end
   $scope module m_PC $end
    $var wire  1 +! clk $end
    $var wire 32 M! pc_i [31:0] $end
    $var wire 32 ^ pc_o [31:0] $end
    $var wire  1 ,! rst $end
   $upscope $end
   $scope module m_Register $end
    $var wire  1 +! clk $end
    $var wire 32 O! readData1 [31:0] $end
    $var wire 32 P! readData2 [31:0] $end
    $var wire  5 (! readReg1 [4:0] $end
    $var wire  5 )! readReg2 [4:0] $end
    $var wire  1 h regWrite $end
    $var wire 32 > regs[0] [31:0] $end
    $var wire 32 H regs[10] [31:0] $end
    $var wire 32 I regs[11] [31:0] $end
    $var wire 32 J regs[12] [31:0] $end
    $var wire 32 K regs[13] [31:0] $end
    $var wire 32 L regs[14] [31:0] $end
    $var wire 32 M regs[15] [31:0] $end
    $var wire 32 N regs[16] [31:0] $end
    $var wire 32 O regs[17] [31:0] $end
    $var wire 32 P regs[18] [31:0] $end
    $var wire 32 Q regs[19] [31:0] $end
    $var wire 32 ? regs[1] [31:0] $end
    $var wire 32 R regs[20] [31:0] $end
    $var wire 32 S regs[21] [31:0] $end
    $var wire 32 T regs[22] [31:0] $end
    $var wire 32 U regs[23] [31:0] $end
    $var wire 32 V regs[24] [31:0] $end
    $var wire 32 W regs[25] [31:0] $end
    $var wire 32 X regs[26] [31:0] $end
    $var wire 32 Y regs[27] [31:0] $end
    $var wire 32 Z regs[28] [31:0] $end
    $var wire 32 [ regs[29] [31:0] $end
    $var wire 32 @ regs[2] [31:0] $end
    $var wire 32 \ regs[30] [31:0] $end
    $var wire 32 ] regs[31] [31:0] $end
    $var wire 32 A regs[3] [31:0] $end
    $var wire 32 B regs[4] [31:0] $end
    $var wire 32 C regs[5] [31:0] $end
    $var wire 32 D regs[6] [31:0] $end
    $var wire 32 E regs[7] [31:0] $end
    $var wire 32 F regs[8] [31:0] $end
    $var wire 32 G regs[9] [31:0] $end
    $var wire  1 ,! rst $end
    $var wire 32 q writeData [31:0] $end
    $var wire  5 t writeReg [4:0] $end
   $upscope $end
  $upscope $end
 $upscope $end
$enddefinitions $end


#0
b00000000000000000000000000000000 #
b00000000000000000000000000000000 $
b00000000000000000000000000000000 %
b00000000000000000000000000000000 &
b00000000000000000000000000000100 '
b0000 (
0)
0*
0+
0,
0-
0.
0/
00
01
02
03
b00000000000000000000000000000000 4
b00000000000000000000000000000000 5
b00000000000000000000000000000000 6
b00000000000000000000000000000000 7
b00000 8
b00000 9
b00000000000000000000000000000000 :
b00000000000000000000000000000000 ;
b0000 <
b00000000000000000000000000000000 =
b00000000000000000000000000000000 >
b00000000000000000000000000000000 ?
b00000000000000000000000000000000 @
b00000000000000000000000000000000 A
b00000000000000000000000000000000 B
b00000000000000000000000000000000 C
b00000000000000000000000000000000 D
b00000000000000000000000000000000 E
b00000000000000000000000000000000 F
b00000000000000000000000000000000 G
b00000000000000000000000000000000 H
b00000000000000000000000000000000 I
b00000000000000000000000000000000 J
b00000000000000000000000000000000 K
b00000000000000000000000000000000 L
b00000000000000000000000000000000 M
b00000000000000000000000000000000 N
b00000000000000000000000000000000 O
b00000000000000000000000000000000 P
b00000000000000000000000000000000 Q
b00000000000000000000000000000000 R
b00000000000000000000000000000000 S
b00000000000000000000000000000000 T
b00000000000000000000000000000000 U
b00000000000000000000000000000000 V
b00000000000000000000000000000000 W
b00000000000000000000000000000000 X
b00000000000000000000000000000000 Y
b00000000000000000000000000000000 Z
b00000000000000000000000000000000 [
b00000000000000000000000000000000 \
b00000000000000000000000000000000 ]
b00000000000000000000000000000000 ^
b00000000000000000000000000000100 _
b00000000010000000000011000010011 `
b00000000000000000000000000000000 a
b1100 b
0c
0d
0e
0f
0g
0h
0i
0j
0k
0l
0m
0n
0o
b00 p
b00000000000000000000000000000000 q
b00000 r
b00000 s
b00000 t
b00000000000000000000000000000000 u
b00000000000000000000000000000000 v
b00000000000000000000000000000000 w
b00000000000000000000000000000000 x
b00000000000000000000000000000000 y
b00000000000000000000000000000000 z
b00000000000000000000000000000000 {
b0010 |
b00 }
b00 ~
0!!
0"!
0#!
0$!
0%!
b000 &!
b0000000 '!
b00000 (!
b00000 )!
b00000 *!
0+!
1,!
b00000000000000000000000000000000 -!
b00000000000000000000000000000000 .!
b00000000000000000000000000000000 /!
b00000000000000000000000000000000 0!
b00000000000000000000000000000000 1!
b00000000000000000000000000000000 2!
b00000000000000000000000000000000 3!
b00000000000000000000000000000000 4!
b00000000000000000000000000000000 5!
b00000000000000000000000000000000 6!
b00000000000000000000000000000000 7!
b00000000000000000000000000000000 8!
b00000000000000000000000000000000 9!
b00000000000000000000000000000000 :!
b00000000000000000000000000000000 ;!
b00000000000000000000000000000000 <!
b00000000000000000000000000000000 =!
b00000000000000000000000000000000 >!
b00000000000000000000000000000000 ?!
b00000000000000000000000000000000 @!
b00000000000000000000000000000000 A!
b00000000000000000000000000000000 B!
b00000000000000000000000000000000 C!
b00000000000000000000000000000000 D!
b00000000000000000000000000000000 E!
b00000000000000000000000000000000 F!
b00000000000000000000000000000000 G!
b00000000000000000000000000000000 H!
b00000000000000000000000000000000 I!
b00000000000000000000000000000000 J!
b00000000000000000000000000000000 K!
b00000000000000000000000000000000 L!
b00000000000000000000000000000100 M!
0N!
b00000000000000000000000000000000 O!
b00000000000000000000000000000000 P!
b00000000000000000000000000000000 Q!
b00000000000000000000000000000100 R!
0S!
b00000000000000000000000000000100 T!
0U!
b00000000000000000000000000100000 V!
#1
b00000000000000000000000010000000 @
1+!
0,!
b00000000000000000000000010000000 /!
#2
0+!
1,!
#3
b1100 (
b0010 <
b00000000000000000000000000000100 ^
b00000000000000000000000000001000 _
b00000000110000000000000011101111 `
b00000000010000000000011000010011 a
1c
1e
b11 p
b00000000000000000000000000000100 u
b0010011 '!
b00100 )!
b01100 *!
1+!
b00000000000000000000000000001000 M!
1N!
b00000000000000000000000000001000 R!
#4
0+!
#5
b00000000000000000000000000000100 #
1)
b00100 9
b00000000000000000000000000000100 :
b00000000000000000000000000001000 ^
b00000000000000000000000000001100 _
b00000000010000000000000011101111 `
b00000000110000000000000011101111 a
1f
1m
1n
1o
b00 p
b01100 r
b00000000000000000000000000001100 u
b00000000000000000000000000000100 w
b00000000000000000000000000000100 z
b1101111 '!
b01100 )!
b00001 *!
1+!
b00000000000000000000000000001100 M!
b00000000000000000000000000001100 R!
#6
0+!
#7
b00000000000000000000000000001000 #
b00000000000000000000000000000100 $
1/
10
13
b01100 9
b00000000000000000000000000001100 :
b00000000000000000000000000001100 ^
b00000000000000000000000000010000 _
b00000000000000000000000001101111 `
b00000000010000000000000011101111 a
1g
b00001 r
b01100 s
b00000000000000000000000000000100 u
b00000000000000000000000000000100 v
b00000000000000000000000000001100 w
b00000000000000000000000000000100 y
b00000000000000000000000000010000 z
b00000000000000000000000000000100 {
b10 ~
1!!
1"!
b00100 )!
1+!
b00000000000000000000000000010000 M!
0N!
b00000000000000000000000000010000 R!
1S!
#8
0+!
#9
b00000000000000000000000000000000 #
b00000000000000000000000000000000 $
b00000000000000000000000000000100 %
b0000 (
0)
0/
00
11
03
b00000000000000000000000000000100 6
b00000 9
b00000000000000000000000000000000 :
b00000000000000000000000000000100 ;
b0000 <
b00000000000000000000000000000100 =
b00000000000000000000000000010000 ^
b00000000000000000000000000010100 _
b11111111010000010000000100010011 `
b00000000000000000000000000000000 a
0c
0e
0f
1h
0m
0n
0o
b00000000000000000000000000000100 q
b00000 r
b00001 s
b01100 t
b00000000000000000000000000000000 u
b00000000000000000000000000000000 v
b00000000000000000000000000000000 w
b00000000000000000000000000000000 y
b00000000000000000000000000000000 z
b00000000000000000000000000010000 {
b00 ~
0!!
0"!
b0000000 '!
b00000 )!
b00000 *!
1+!
b00000000000000000000000000010100 M!
b00000000000000000000000000010100 R!
0S!
#10
b00000000000000000000000000000100 J
0+!
b00000000000000000000000000000100 9!
#11
b00000000000000000000000000010000 #
b00000000000000000000000000000000 %
b00000000000000000000000000000100 &
b00000000000000000000000000001000 '
b1100 (
01
12
b00000000000000000000000000000000 6
b00000000000000000000000000010000 ;
b0010 <
b00000000000000000000000000010000 =
b00000000000000000000000000010100 ^
b00000000000000000000000000011000 _
b00000000000100010010010000100011 `
b11111111010000010000000100010011 a
1c
1e
0g
b11 p
b00000000000000000000000000001000 q
b00000 s
b00001 t
b11111111111111111111111111110100 u
b00000000000000000000000000000000 {
1%!
b0010011 '!
b00010 (!
b10100 )!
b00010 *!
1+!
b00000000000000000000000000011000 M!
1N!
b00000000000000000000000010000000 O!
b00000000000000000000000000011000 R!
#12
b00000000000000000000000000001000 ?
0+!
b00000000000000000000000000001000 .!
#13
b00000000000000000000000000010100 #
b00000000000000000000000000010000 $
b00000000000000000000000000000000 &
b00000000000000000000000000000100 '
1)
02
b00000000000000000000000010000000 4
b00010 8
b10100 9
b11111111111111111111111111110100 :
b00000000000000000000000000000000 ;
b00000000000000000000000000000000 =
b00000000000000000000000000011000 ^
b00000000000000000000000000011100 _
b00000000100000010010001000100011 `
b00000000000100010010010000100011 a
b0000 b
0e
1f
0h
1l
b00 p
b00000000000000000000000000000000 q
b00010 r
b00000 t
b00000000000000000000000000001000 u
b00000000000000000000000010000000 v
b11111111111111111111111111110100 w
b00000000000000000000000010000000 x
b00000000000000000000000001110100 z
0%!
b010 &!
b0100011 '!
b00001 )!
b01000 *!
1+!
b00000000000000000000000000011100 M!
0N!
b00000000000000000000000000001000 P!
b00000000000000000000000000011100 R!
#14
0+!
#15
b00000000000000000000000000011000 #
b00000000000000000000000000010100 $
b00000000000000000000000000010000 %
b0000 (
1-
b00000000000000000000000000001000 5
b00001 9
b00000000000000000000000000001000 :
b00000000000000000000000000011100 ^
b00000000000000000000000000100000 _
b00000000000000000000010100010011 `
b00000000100000010010001000100011 a
0f
1g
b01000 r
b00010 s
b00000000000000000000000000000100 u
b00000000000000000000000001110100 v
b00000000000000000000000000001000 w
b00000000000000000000000001110100 x
b00000000000000000000000000001000 y
b00000000000000000000000001111100 z
b00000000000000000000000001110100 {
b10 }
b01000 )!
b00100 *!
1+!
b00000000000000000000000000100000 M!
b00000000000000000000000000000000 P!
b00000000000000000000000000100000 R!
#16
0+!
#17
b00000000000000000000000000011100 #
b00000000000000000000000000011000 $
b00000000000000000000000000010100 %
b00000000000000000000000000010000 &
b00000000000000000000000000010100 '
1.
b00000000000000000000000000000000 5
b00000000000000000000000000001000 6
b01000 9
b00000000000000000000000000000100 :
b00000000000000000000000001110100 ;
b00000000000000000000000001110100 =
b00000000000000000000000000100000 ^
b00000000000000000000000000100100 _
b00000010000001100000011001100011 `
b00000000000000000000010100010011 a
b1100 b
1e
0g
1h
0l
b11 p
b00000000000000000000000001110100 q
b00100 r
b01000 s
b00010 t
b00000000000000000000000000000000 u
b00000000000000000000000000000100 w
b00000000000000000000000000000000 y
b00000000000000000000000001111000 z
b00000000000000000000000001111100 {
b01 }
b000 &!
b0010011 '!
b00000 (!
b00000 )!
b01010 *!
1+!
b00000000000000000000000000100100 M!
b00000000000000000000000000000000 O!
b00000000000000000000000000100100 R!
#18
b00000000000000000000000001110100 @
0+!
b00000000000000000000000001110100 /!
#19
b00000000000000000000000000100000 #
b00000000000000000000000000011100 $
b00000000000000000000000000011000 %
b00000000000000000000000000010100 &
b00000000000000000000000000011000 '
b1100 (
0-
b00000000000000000000000000000000 4
b00000000000000000000000000000000 6
b00000 8
b00000 9
b00000000000000000000000000000000 :
b00000000000000000000000001111100 ;
b00000000000000000000000001111100 =
b00000000000000000000000000100100 ^
b00000000000000000000000000101000 _
b00000000000101010000010100010011 `
b00000010000001100000011001100011 a
0e
1f
0h
1m
1o
b00 p
b00000000000000000000000001111100 q
b01010 r
b00100 s
b01000 t
b00000000000000000000000000101100 u
b00000000000000000000000000000000 v
b00000000000000000000000000000000 w
b00000000000000000000000000000000 x
b00000000000000000000000000000000 z
b00000000000000000000000001111000 {
b00 }
b1100011 '!
b01100 (!
b01100 *!
1+!
b00000000000000000000000000101000 M!
1N!
b00000000000000000000000000000100 O!
b00000000000000000000000000101000 R!
#20
0+!
#21
b00000000000000000000000000100100 #
b00000000000000000000000000100000 $
b00000000000000000000000000011100 %
b00000000000000000000000000011000 &
b00000000000000000000000000011100 '
0.
1/
13
b00000000000000000000000000000100 4
b01100 8
b00000000000000000000000000101100 :
b00000000000000000000000001111000 ;
b00000000000000000000000001111000 =
b00000000000000000000000000101000 ^
b00000000000000000000000000101100 _
b00000010101001100000001001100011 `
b00000000000101010000010100010011 a
1e
0f
1g
0m
0o
b11 p
b00000000000000000000000001111000 q
b01100 r
b01010 s
b00100 t
b00000000000000000000000000000001 u
b00000000000000000000000000100000 v
b00000000000000000000000000101100 w
b00000000000000000000000000000100 x
b00000000000000000000000001001100 z
b00000000000000000000000000000000 {
b0010011 '!
b01010 (!
b00001 )!
b01010 *!
1+!
b00000000000000000000000000101100 M!
0N!
b00000000000000000000000000000000 O!
b00000000000000000000000000001000 P!
b00000000000000000000000000101100 R!
#22
0+!
#23
b00000000000000000000000000101000 #
b00000000000000000000000000100100 $
b00000000000000000000000000100000 %
b00000000000000000000000000011100 &
b00000000000000000000000000100000 '
0/
03
b00000000000000000000000000000000 4
b00000000000000000000000000001000 5
b01010 8
b00001 9
b00000000000000000000000000000001 :
b00000000000000000000000000000000 ;
b00000000000000000000000000000000 =
b00000000000000000000000000101100 ^
b00000000000000000000000000110000 _
b11111111111101100000011000010011 `
b00000010101001100000001001100011 a
0e
1f
0g
1h
1m
1o
b00 p
b00000000000000000000000000000000 q
b01010 r
b01100 s
b01010 t
b00000000000000000000000000100100 u
b00000000000000000000000000000000 v
b00000000000000000000000000000001 w
b00000000000000000000000000000000 x
b00000000000000000000000000001000 y
b00000000000000000000000000000001 z
b00000000000000000000000001001100 {
b01 }
b1100011 '!
b01100 (!
b01010 )!
b00100 *!
1+!
b00000000000000000000000000110000 M!
b00000000000000000000000000000100 O!
b00000000000000000000000000000000 P!
b00000000000000000000000000110000 R!
#24
0+!
