lab1and2/waveform.vcd
$version Generated by VerilatedVcd $end
$timescale 1s $end

 $scope module TOP $end
  $var wire  1 _ clk $end
  $var wire 32 a r[0] [31:0] $end
  $var wire 32 k r[10] [31:0] $end
  $var wire 32 l r[11] [31:0] $end
  $var wire 32 m r[12] [31:0] $end
  $var wire 32 n r[13] [31:0] $end
  $var wire 32 o r[14] [31:0] $end
  $var wire 32 p r[15] [31:0] $end
  $var wire 32 q r[16] [31:0] $end
  $var wire 32 r r[17] [31:0] $end
  $var wire 32 s r[18] [31:0] $end
  $var wire 32 t r[19] [31:0] $end
  $var wire 32 b r[1] [31:0] $end
  $var wire 32 u r[20] [31:0] $end
  $var wire 32 v r[21] [31:0] $end
  $var wire 32 w r[22] [31:0] $end
  $var wire 32 x r[23] [31:0] $end
  $var wire 32 y r[24] [31:0] $end
  $var wire 32 z r[25] [31:0] $end
  $var wire 32 { r[26] [31:0] $end
  $var wire 32 | r[27] [31:0] $end
  $var wire 32 } r[28] [31:0] $end
  $var wire 32 ~ r[29] [31:0] $end
  $var wire 32 c r[2] [31:0] $end
  $var wire 32 !! r[30] [31:0] $end
  $var wire 32 "! r[31] [31:0] $end
  $var wire 32 d r[3] [31:0] $end
  $var wire 32 e r[4] [31:0] $end
  $var wire 32 f r[5] [31:0] $end
  $var wire 32 g r[6] [31:0] $end
  $var wire 32 h r[7] [31:0] $end
  $var wire 32 i r[8] [31:0] $end
  $var wire 32 j r[9] [31:0] $end
  $var wire  1 ` start $end
  $scope module SingleCycleCPU $end
   $var wire  4 Q ALUCtl [3:0] $end
   $var wire  2 O ALUOp [1:0] $end
   $var wire 32 ^ ALUOut [31:0] $end
   $var wire  4 F BranchCtl [3:0] $end
   $var wire  1 #! BranchOut $end
   $var wire 32 $! WriteData_mux1_out [31:0] $end
   $var wire 32 %! WriteData_mux2_out [31:0] $end
   $var wire 32 \ alu_mux1_out [31:0] $end
   $var wire 32 ] alu_mux2_out [31:0] $end
   $var wire  1 L branch $end
   $var wire  1 _ clk $end
   $var wire 32 P imm [31:0] $end
   $var wire  1 G immUse $end
   $var wire 32 E instruction [31:0] $end
   $var wire  1 M jump $end
   $var wire  1 J memRead $end
   $var wire  1 K memWrite $end
   $var wire  1 H memtoReg $end
   $var wire  1 N pcUse $end
   $var wire 32 D pc_add4 [31:0] $end
   $var wire 32 Y pc_mux_out [31:0] $end
   $var wire 32 C pc_o [31:0] $end
   $var wire 32 a r[0] [31:0] $end
   $var wire 32 k r[10] [31:0] $end
   $var wire 32 l r[11] [31:0] $end
   $var wire 32 m r[12] [31:0] $end
   $var wire 32 n r[13] [31:0] $end
   $var wire 32 o r[14] [31:0] $end
   $var wire 32 p r[15] [31:0] $end
   $var wire 32 q r[16] [31:0] $end
   $var wire 32 r r[17] [31:0] $end
   $var wire 32 s r[18] [31:0] $end
   $var wire 32 t r[19] [31:0] $end
   $var wire 32 b r[1] [31:0] $end
   $var wire 32 u r[20] [31:0] $end
   $var wire 32 v r[21] [31:0] $end
   $var wire 32 w r[22] [31:0] $end
   $var wire 32 x r[23] [31:0] $end
   $var wire 32 y r[24] [31:0] $end
   $var wire 32 z r[25] [31:0] $end
   $var wire 32 { r[26] [31:0] $end
   $var wire 32 | r[27] [31:0] $end
   $var wire 32 } r[28] [31:0] $end
   $var wire 32 ~ r[29] [31:0] $end
   $var wire 32 c r[2] [31:0] $end
   $var wire 32 !! r[30] [31:0] $end
   $var wire 32 "! r[31] [31:0] $end
   $var wire 32 d r[3] [31:0] $end
   $var wire 32 e r[4] [31:0] $end
   $var wire 32 f r[5] [31:0] $end
   $var wire 32 g r[6] [31:0] $end
   $var wire 32 h r[7] [31:0] $end
   $var wire 32 i r[8] [31:0] $end
   $var wire 32 j r[9] [31:0] $end
   $var wire 32 Z readData1 [31:0] $end
   $var wire 32 [ readData2 [31:0] $end
   $var wire 32 &! readData3 [31:0] $end
   $var wire  1 I regWrite $end
   $var wire  1 ` start $end
   $scope module m_ALU $end
    $var wire 32 \ A [31:0] $end
    $var wire  4 Q ALUCtl [3:0] $end
    $var wire 32 ^ ALUOut [31:0] $end
    $var wire 32 ] B [31:0] $end
   $upscope $end
   $scope module m_ALU_Branch_Ctrl $end
    $var wire  4 Q ALUCtl [3:0] $end
    $var wire  2 O ALUOp [1:0] $end
    $var wire  4 F BranchCtl [3:0] $end
    $var wire  3 S funct3 [2:0] $end
    $var wire  1 R funct7 $end
   $upscope $end
   $scope module m_Adder_1 $end
    $var wire 32 C a [31:0] $end
    $var wire 32 (! b [31:0] $end
    $var wire 32 D sum [31:0] $end
   $upscope $end
   $scope module m_BranchComp $end
    $var wire 32 Z A [31:0] $end
    $var wire 32 [ B [31:0] $end
    $var wire  4 F BranchCtl [3:0] $end
    $var wire  1 #! BranchOut $end
   $upscope $end
   $scope module m_Control $end
    $var wire  2 O ALUOp [1:0] $end
    $var wire  1 L branch $end
    $var wire  8 U control [7:0] $end
    $var wire  1 G immUse $end
    $var wire  1 M jump $end
    $var wire  1 J memRead $end
    $var wire  1 K memWrite $end
    $var wire  1 H memtoReg $end
    $var wire  7 T opcode [6:0] $end
    $var wire  1 N pcUse $end
    $var wire  1 I regWrite $end
   $upscope $end
   $scope module m_DataMemory $end
    $var wire 32 ^ address [31:0] $end
    $var wire  1 _ clk $end
    $var wire  1 J memRead $end
    $var wire  1 K memWrite $end
    $var wire 32 &! readData [31:0] $end
    $var wire  1 ` rst $end
    $var wire 32 [ writeData [31:0] $end
   $upscope $end
   $scope module m_ImmGen $end
    $var wire 32 P imm [31:0] $end
    $var wire 32 E inst [31:0] $end
    $var wire  7 T opcode [6:0] $end
   $upscope $end
   $scope module m_InstMem $end
    $var wire 32 E inst [31:0] $end
    $var wire 32 C readAddr [31:0] $end
   $upscope $end
   $scope module m_Mux1_ALU $end
    $var wire 32 \ out [31:0] $end
    $var wire 32 Z s0 [31:0] $end
    $var wire 32 C s1 [31:0] $end
    $var wire  1 N sel $end
    $var wire 32 )! size [31:0] $end
   $upscope $end
   $scope module m_Mux1_WriteData $end
    $var wire 32 $! out [31:0] $end
    $var wire 32 ^ s0 [31:0] $end
    $var wire 32 &! s1 [31:0] $end
    $var wire  1 H sel $end
    $var wire 32 )! size [31:0] $end
   $upscope $end
   $scope module m_Mux2_ALU $end
    $var wire 32 ] out [31:0] $end
    $var wire 32 [ s0 [31:0] $end
    $var wire 32 P s1 [31:0] $end
    $var wire  1 G sel $end
    $var wire 32 )! size [31:0] $end
   $upscope $end
   $scope module m_Mux2_WriteData $end
    $var wire 32 %! out [31:0] $end
    $var wire 32 $! s0 [31:0] $end
    $var wire 32 D s1 [31:0] $end
    $var wire  1 M sel $end
    $var wire 32 )! size [31:0] $end
   $upscope $end
   $scope module m_Mux_PC $end
    $var wire 32 Y out [31:0] $end
    $var wire 32 D s0 [31:0] $end
    $var wire 32 ^ s1 [31:0] $end
    $var wire  1 '! sel $end
    $var wire 32 )! size [31:0] $end
   $upscope $end
   $scope module m_PC $end
    $var wire  1 _ clk $end
    $var wire 32 Y pc_i [31:0] $end
    $var wire 32 C pc_o [31:0] $end
    $var wire  1 ` rst $end
   $upscope $end
   $scope module m_Register $end
    $var wire  1 _ clk $end
    $var wire 32 Z readData1 [31:0] $end
    $var wire 32 [ readData2 [31:0] $end
    $var wire  5 V readReg1 [4:0] $end
    $var wire  5 W readReg2 [4:0] $end
    $var wire  1 I regWrite $end
    $var wire 32 # regs[0] [31:0] $end
    $var wire 32 - regs[10] [31:0] $end
    $var wire 32 . regs[11] [31:0] $end
    $var wire 32 / regs[12] [31:0] $end
    $var wire 32 0 regs[13] [31:0] $end
    $var wire 32 1 regs[14] [31:0] $end
    $var wire 32 2 regs[15] [31:0] $end
    $var wire 32 3 regs[16] [31:0] $end
    $var wire 32 4 regs[17] [31:0] $end
    $var wire 32 5 regs[18] [31:0] $end
    $var wire 32 6 regs[19] [31:0] $end
    $var wire 32 $ regs[1] [31:0] $end
    $var wire 32 7 regs[20] [31:0] $end
    $var wire 32 8 regs[21] [31:0] $end
    $var wire 32 9 regs[22] [31:0] $end
    $var wire 32 : regs[23] [31:0] $end
    $var wire 32 ; regs[24] [31:0] $end
    $var wire 32 < regs[25] [31:0] $end
    $var wire 32 = regs[26] [31:0] $end
    $var wire 32 > regs[27] [31:0] $end
    $var wire 32 ? regs[28] [31:0] $end
    $var wire 32 @ regs[29] [31:0] $end
    $var wire 32 % regs[2] [31:0] $end
    $var wire 32 A regs[30] [31:0] $end
    $var wire 32 B regs[31] [31:0] $end
    $var wire 32 & regs[3] [31:0] $end
    $var wire 32 ' regs[4] [31:0] $end
    $var wire 32 ( regs[5] [31:0] $end
    $var wire 32 ) regs[6] [31:0] $end
    $var wire 32 * regs[7] [31:0] $end
    $var wire 32 + regs[8] [31:0] $end
    $var wire 32 , regs[9] [31:0] $end
    $var wire  1 ` rst $end
    $var wire 32 %! writeData [31:0] $end
    $var wire  5 X writeReg [4:0] $end
   $upscope $end
  $upscope $end
 $upscope $end
$enddefinitions $end


#0
b00000000000000000000000000000000 #
b00000000000000000000000000000000 $
b00000000000000000000000000000000 %
b00000000000000000000000000000000 &
b00000000000000000000000000000000 '
b00000000000000000000000000000000 (
b00000000000000000000000000000000 )
b00000000000000000000000000000000 *
b00000000000000000000000000000000 +
b00000000000000000000000000000000 ,
b00000000000000000000000000000000 -
b00000000000000000000000000000000 .
b00000000000000000000000000000000 /
b00000000000000000000000000000000 0
b00000000000000000000000000000000 1
b00000000000000000000000000000000 2
b00000000000000000000000000000000 3
b00000000000000000000000000000000 4
b00000000000000000000000000000000 5
b00000000000000000000000000000000 6
b00000000000000000000000000000000 7
b00000000000000000000000000000000 8
b00000000000000000000000000000000 9
b00000000000000000000000000000000 :
b00000000000000000000000000000000 ;
b00000000000000000000000000000000 <
b00000000000000000000000000000000 =
b00000000000000000000000000000000 >
b00000000000000000000000000000000 ?
b00000000000000000000000000000000 @
b00000000000000000000000000000000 A
b00000000000000000000000000000000 B
b00000000000000000000000000000000 C
b00000000000000000000000000000100 D
b00000110010000000000010100010011 E
b1100 F
1G
0H
1I
0J
0K
0L
0M
0N
b11 O
b00000000000000000000000001100100 P
b0010 Q
0R
b000 S
b0010011 T
b10100000 U
b00000 V
b00100 W
b01010 X
b00000000000000000000000000000100 Y
b00000000000000000000000000000000 Z
b00000000000000000000000000000000 [
b00000000000000000000000000000000 \
b00000000000000000000000001100100 ]
b00000000000000000000000001100100 ^
0_
1`
b00000000000000000000000000000000 a
b00000000000000000000000000000000 b
b00000000000000000000000000000000 c
b00000000000000000000000000000000 d
b00000000000000000000000000000000 e
b00000000000000000000000000000000 f
b00000000000000000000000000000000 g
b00000000000000000000000000000000 h
b00000000000000000000000000000000 i
b00000000000000000000000000000000 j
b00000000000000000000000000000000 k
b00000000000000000000000000000000 l
b00000000000000000000000000000000 m
b00000000000000000000000000000000 n
b00000000000000000000000000000000 o
b00000000000000000000000000000000 p
b00000000000000000000000000000000 q
b00000000000000000000000000000000 r
b00000000000000000000000000000000 s
b00000000000000000000000000000000 t
b00000000000000000000000000000000 u
b00000000000000000000000000000000 v
b00000000000000000000000000000000 w
b00000000000000000000000000000000 x
b00000000000000000000000000000000 y
b00000000000000000000000000000000 z
b00000000000000000000000000000000 {
b00000000000000000000000000000000 |
b00000000000000000000000000000000 }
b00000000000000000000000000000000 ~
b00000000000000000000000000000000 !!
b00000000000000000000000000000000 "!
1#!
b00000000000000000000000001100100 $!
b00000000000000000000000001100100 %!
b00000000000000000000000000000000 &!
0'!
b00000000000000000000000000000100 (!
b00000000000000000000000000100000 )!
#1
b00000000000000000000000010000000 %
1_
0`
b00000000000000000000000010000000 c
#2
b00000000000000000000000001100100 -
0_
1`
b00000000000000000000000001100100 k
#3
b00000000000000000000000000000100 C
b00000000000000000000000000001000 D
b11110011100101010000010110010011 E
b11111111111111111111111100111001 P
1R
b01010 V
b11001 W
b01011 X
b00000000000000000000000000001000 Y
b00000000000000000000000001100100 Z
b00000000000000000000000001100100 \
b11111111111111111111111100111001 ]
b11111111111111111111111110011101 ^
1_
0#!
b11111111111111111111111110011101 $!
b11111111111111111111111110011101 %!
#4
b11111111111111111111111110011101 .
0_
b11111111111111111111111110011101 l
#5
b00000000000000000000000000001000 C
b00000000000000000000000000001100 D
b00000000101001011000011000110011 E
0G
b10 O
b00000000000000000000000000000000 P
0R
b0110011 T
b00100000 U
b01011 V
b01010 W
b01100 X
b00000000000000000000000000001100 Y
b11111111111111111111111110011101 Z
b00000000000000000000000001100100 [
b11111111111111111111111110011101 \
b00000000000000000000000001100100 ]
b00000000000000000000000000000001 ^
1_
b00000000000000000000000000000001 $!
b00000000000000000000000000000001 %!
#6
b00000000000000000000000000000001 /
0_
b00000000000000000000000000000001 m
#7
b00000000000000000000000000001100 C
b00000000000000000000000000010000 D
b01000000101001011000011010110011 E
b0110 Q
1R
b01101 X
b00000000000000000000000000010000 Y
b11111111111111111111111100111001 ^
1_
b11111111111111111111111100111001 $!
b11111111111111111111111100111001 %!
#8
b11111111111111111111111100111001 0
0_
b11111111111111111111111100111001 n
#9
b00000000000000000000000000010000 C
b00000000000000000000000000010100 D
b01000000101101101000011100110011 E
b01101 V
b01011 W
b01110 X
b00000000000000000000000000010100 Y
b11111111111111111111111100111001 Z
b11111111111111111111111110011101 [
b11111111111111111111111100111001 \
b11111111111111111111111110011101 ]
b11111111111111111111111110011100 ^
1_
b11111111111111111111111110011100 $!
b11111111111111111111111110011100 %!
#10
b11111111111111111111111110011100 1
0_
b11111111111111111111111110011100 o
#11
b00000000000000000000000000010100 C
b00000000000000000000000000011000 D
b00000000111001101111011110110011 E
b0000 F
b0000 Q
0R
b111 S
b01110 W
b01111 X
b00000000000000000000000000011000 Y
b11111111111111111111111110011100 [
b11111111111111111111111110011100 ]
b11111111111111111111111100011000 ^
1_
b11111111111111111111111100011000 $!
b11111111111111111111111100011000 %!
#12
b11111111111111111111111100011000 2
0_
b11111111111111111111111100011000 p
#13
b00000000000000000000000000011000 C
b00000000000000000000000000011100 D
b01001101001001111111100000010011 E
1G
b11 O
b00000000000000000000010011010010 P
1R
b0010011 T
b10100000 U
b01111 V
b10010 W
b10000 X
b00000000000000000000000000011100 Y
b11111111111111111111111100011000 Z
b00000000000000000000000000000000 [
b11111111111111111111111100011000 \
b00000000000000000000010011010010 ]
b00000000000000000000010000010000 ^
1_
b00000000000000000000010000010000 $!
b00000000000000000000010000010000 %!
#14
b00000000000000000000010000010000 3
0_
b00000000000000000000010000010000 q
#15
b00000000000000000000000000011100 C
b00000000000000000000000000100000 D
b10110010111001111111100010010011 E
b11111111111111111111101100101110 P
0R
b01110 W
b10001 X
b00000000000000000000000000100000 Y
b11111111111111111111111110011100 [
b11111111111111111111101100101110 ]
b11111111111111111111101100001000 ^
1_
b11111111111111111111101100001000 $!
b11111111111111111111101100001000 %!
#16
b11111111111111111111101100001000 4
0_
b11111111111111111111101100001000 r
#17
b00000000000000000000000000100000 C
b00000000000000000000000000100100 D
b00000001000110000110100100110011 E
0G
b10 O
b00000000000000000000000000000000 P
b0111 Q
b110 S
b0110011 T
b00100000 U
b10000 V
b10001 W
b10010 X
b00000000000000000000000000100100 Y
b00000000000000000000010000010000 Z
b11111111111111111111101100001000 [
b00000000000000000000010000010000 \
b11111111111111111111101100001000 ]
b00000000000000000000000000000000 ^
1_
b00000000000000000000000000000000 $!
b00000000000000000000000000000000 %!
#18
0_
#19
b00000000000000000000000000100100 C
b00000000000000000000000000101000 D
b00000000000000000000000000000000 E
b1100 F
0I
b00 O
b0010 Q
b000 S
b0000000 T
b00000000 U
b00000 V
b00000 W
b00000 X
b00000000000000000000000000101000 Y
b00000000000000000000000000000000 Z
b00000000000000000000000000000000 [
b00000000000000000000000000000000 \
b00000000000000000000000000000000 ]
1_
1#!
#20
0_
#21
b00000000000000000000000000101000 C
b00000000000000000000000000101100 D
b00000000000000000000000000101100 Y
1_
#22
0_
#23
b00000000000000000000000000101100 C
b00000000000000000000000000110000 D
b00000000000000000000000000110000 Y
1_
#24
0_
#25
b00000000000000000000000000110000 C
b00000000000000000000000000110100 D
b00000000000000000000000000110100 Y
1_
#26
0_
#27
b00000000000000000000000000110100 C
b00000000000000000000000000111000 D
b00000000000000000000000000111000 Y
1_
#28
0_
#29
b00000000000000000000000000111000 C
b00000000000000000000000000111100 D
b00000000000000000000000000111100 Y
1_
#30
0_
#31
b00000000000000000000000000111100 C
b00000000000000000000000001000000 D
b00000000000000000000000001000000 Y
1_
#32
0_
#33
b00000000000000000000000001000000 C
b00000000000000000000000001000100 D
b00000000000000000000000001000100 Y
1_
#34
0_
#35
b00000000000000000000000001000100 C
b00000000000000000000000001001000 D
b00000000000000000000000001001000 Y
1_
#36
0_
#37
b00000000000000000000000001001000 C
b00000000000000000000000001001100 D
b00000000000000000000000001001100 Y
1_
#38
0_
#39
b00000000000000000000000001001100 C
b00000000000000000000000001010000 D
b00000000000000000000000001010000 Y
1_
#40
0_
#41
b00000000000000000000000001010000 C
b00000000000000000000000001010100 D
b00000000000000000000000001010100 Y
1_
#42
0_
#43
b00000000000000000000000001010100 C
b00000000000000000000000001011000 D
b00000000000000000000000001011000 Y
1_
#44
0_
#45
b00000000000000000000000001011000 C
b00000000000000000000000001011100 D
b00000000000000000000000001011100 Y
1_
#46
0_
#47
b00000000000000000000000001011100 C
b00000000000000000000000001100000 D
b00000000000000000000000001100000 Y
1_
#48
0_
#49
b00000000000000000000000001100000 C
b00000000000000000000000001100100 D
b00000000000000000000000001100100 Y
1_
#50
0_
#51
b00000000000000000000000001100100 C
b00000000000000000000000001101000 D
b00000000000000000000000001101000 Y
1_
#52
0_
#53
b00000000000000000000000001101000 C
b00000000000000000000000001101100 D
b00000000000000000000000001101100 Y
1_
#54
0_
#55
b00000000000000000000000001101100 C
b00000000000000000000000001110000 D
b00000000000000000000000001110000 Y
1_
#56
0_
#57
b00000000000000000000000001110000 C
b00000000000000000000000001110100 D
b00000000000000000000000001110100 Y
1_
#58
0_
#59
b00000000000000000000000001110100 C
b00000000000000000000000001111000 D
b00000000000000000000000001111000 Y
1_
#60
0_
#61
b00000000000000000000000001111000 C
b00000000000000000000000001111100 D
b00000000000000000000000001111100 Y
1_
#62
0_
#63
b00000000000000000000000001111100 C
b00000000000000000000000010000000 D
b00000000000000000000000010000000 Y
1_
#64
0_
#65
b00000000000000000000000010000000 C
b00000000000000000000000010000100 D
b00000000000000000000000010000100 Y
1_
#66
0_
#67
b00000000000000000000000010000100 C
b00000000000000000000000010001000 D
b00000000000000000000000010001000 Y
1_
#68
0_
#69
b00000000000000000000000010001000 C
b00000000000000000000000010001100 D
b00000000000000000000000010001100 Y
1_
#70
0_
#71
b00000000000000000000000010001100 C
b00000000000000000000000010010000 D
b00000000000000000000000010010000 Y
1_
#72
0_
#73
b00000000000000000000000010010000 C
b00000000000000000000000010010100 D
b00000000000000000000000010010100 Y
1_
#74
0_
#75
b00000000000000000000000010010100 C
b00000000000000000000000010011000 D
b00000000000000000000000010011000 Y
1_
#76
0_
#77
b00000000000000000000000010011000 C
b00000000000000000000000010011100 D
b00000000000000000000000010011100 Y
1_
#78
0_
#79
b00000000000000000000000010011100 C
b00000000000000000000000010100000 D
b00000000000000000000000010100000 Y
1_
#80
0_
#81
b00000000000000000000000010100000 C
b00000000000000000000000010100100 D
b00000000000000000000000010100100 Y
1_
#82
0_
#83
b00000000000000000000000010100100 C
b00000000000000000000000010101000 D
b00000000000000000000000010101000 Y
1_
#84
0_
#85
b00000000000000000000000010101000 C
b00000000000000000000000010101100 D
b00000000000000000000000010101100 Y
1_
#86
0_
#87
b00000000000000000000000010101100 C
b00000000000000000000000010110000 D
b00000000000000000000000010110000 Y
1_
#88
0_
#89
b00000000000000000000000010110000 C
b00000000000000000000000010110100 D
b00000000000000000000000010110100 Y
1_
#90
0_
#91
b00000000000000000000000010110100 C
b00000000000000000000000010111000 D
b00000000000000000000000010111000 Y
1_
#92
0_
#93
b00000000000000000000000010111000 C
b00000000000000000000000010111100 D
b00000000000000000000000010111100 Y
1_
#94
0_
#95
b00000000000000000000000010111100 C
b00000000000000000000000011000000 D
b00000000000000000000000011000000 Y
1_
#96
0_
#97
b00000000000000000000000011000000 C
b00000000000000000000000011000100 D
b00000000000000000000000011000100 Y
1_
#98
0_
#99
b00000000000000000000000011000100 C
b00000000000000000000000011001000 D
b00000000000000000000000011001000 Y
1_
#100
0_
#101
b00000000000000000000000011001000 C
b00000000000000000000000011001100 D
b00000000000000000000000011001100 Y
1_
#102
0_
#103
b00000000000000000000000011001100 C
b00000000000000000000000011010000 D
b00000000000000000000000011010000 Y
1_
