lab1and2/waveform.vcd
$version Generated by VerilatedVcd $end
$timescale 1s $end

 $scope module TOP $end
  $var wire  1 ^ clk $end
  $var wire 32 ` r[0] [31:0] $end
  $var wire 32 j r[10] [31:0] $end
  $var wire 32 k r[11] [31:0] $end
  $var wire 32 l r[12] [31:0] $end
  $var wire 32 m r[13] [31:0] $end
  $var wire 32 n r[14] [31:0] $end
  $var wire 32 o r[15] [31:0] $end
  $var wire 32 p r[16] [31:0] $end
  $var wire 32 q r[17] [31:0] $end
  $var wire 32 r r[18] [31:0] $end
  $var wire 32 s r[19] [31:0] $end
  $var wire 32 a r[1] [31:0] $end
  $var wire 32 t r[20] [31:0] $end
  $var wire 32 u r[21] [31:0] $end
  $var wire 32 v r[22] [31:0] $end
  $var wire 32 w r[23] [31:0] $end
  $var wire 32 x r[24] [31:0] $end
  $var wire 32 y r[25] [31:0] $end
  $var wire 32 z r[26] [31:0] $end
  $var wire 32 { r[27] [31:0] $end
  $var wire 32 | r[28] [31:0] $end
  $var wire 32 } r[29] [31:0] $end
  $var wire 32 b r[2] [31:0] $end
  $var wire 32 ~ r[30] [31:0] $end
  $var wire 32 !! r[31] [31:0] $end
  $var wire 32 c r[3] [31:0] $end
  $var wire 32 d r[4] [31:0] $end
  $var wire 32 e r[5] [31:0] $end
  $var wire 32 f r[6] [31:0] $end
  $var wire 32 g r[7] [31:0] $end
  $var wire 32 h r[8] [31:0] $end
  $var wire 32 i r[9] [31:0] $end
  $var wire  1 _ start $end
  $scope module SingleCycleCPU $end
   $var wire  4 Q ALUCtl [3:0] $end
   $var wire  2 O ALUOp [1:0] $end
   $var wire 32 ] ALUOut [31:0] $end
   $var wire  4 F BranchCtl [3:0] $end
   $var wire  1 "! BranchOut $end
   $var wire 32 #! WriteData_mux1_out [31:0] $end
   $var wire 32 $! WriteData_mux2_out [31:0] $end
   $var wire 32 [ alu_mux1_out [31:0] $end
   $var wire 32 \ alu_mux2_out [31:0] $end
   $var wire  1 L branch $end
   $var wire  1 ^ clk $end
   $var wire 32 P imm [31:0] $end
   $var wire  1 G immUse $end
   $var wire 32 E instruction [31:0] $end
   $var wire  1 M jump $end
   $var wire  1 J memRead $end
   $var wire  1 K memWrite $end
   $var wire  1 H memtoReg $end
   $var wire  1 N pcUse $end
   $var wire 32 D pc_add4 [31:0] $end
   $var wire 32 X pc_mux_out [31:0] $end
   $var wire 32 C pc_o [31:0] $end
   $var wire 32 ` r[0] [31:0] $end
   $var wire 32 j r[10] [31:0] $end
   $var wire 32 k r[11] [31:0] $end
   $var wire 32 l r[12] [31:0] $end
   $var wire 32 m r[13] [31:0] $end
   $var wire 32 n r[14] [31:0] $end
   $var wire 32 o r[15] [31:0] $end
   $var wire 32 p r[16] [31:0] $end
   $var wire 32 q r[17] [31:0] $end
   $var wire 32 r r[18] [31:0] $end
   $var wire 32 s r[19] [31:0] $end
   $var wire 32 a r[1] [31:0] $end
   $var wire 32 t r[20] [31:0] $end
   $var wire 32 u r[21] [31:0] $end
   $var wire 32 v r[22] [31:0] $end
   $var wire 32 w r[23] [31:0] $end
   $var wire 32 x r[24] [31:0] $end
   $var wire 32 y r[25] [31:0] $end
   $var wire 32 z r[26] [31:0] $end
   $var wire 32 { r[27] [31:0] $end
   $var wire 32 | r[28] [31:0] $end
   $var wire 32 } r[29] [31:0] $end
   $var wire 32 b r[2] [31:0] $end
   $var wire 32 ~ r[30] [31:0] $end
   $var wire 32 !! r[31] [31:0] $end
   $var wire 32 c r[3] [31:0] $end
   $var wire 32 d r[4] [31:0] $end
   $var wire 32 e r[5] [31:0] $end
   $var wire 32 f r[6] [31:0] $end
   $var wire 32 g r[7] [31:0] $end
   $var wire 32 h r[8] [31:0] $end
   $var wire 32 i r[9] [31:0] $end
   $var wire 32 Y readData1 [31:0] $end
   $var wire 32 Z readData2 [31:0] $end
   $var wire 32 %! readData3 [31:0] $end
   $var wire  1 I regWrite $end
   $var wire  1 _ start $end
   $scope module m_ALU $end
    $var wire 32 [ A [31:0] $end
    $var wire  4 Q ALUCtl [3:0] $end
    $var wire 32 ] ALUOut [31:0] $end
    $var wire 32 \ B [31:0] $end
   $upscope $end
   $scope module m_ALU_Branch_Ctrl $end
    $var wire  4 Q ALUCtl [3:0] $end
    $var wire  2 O ALUOp [1:0] $end
    $var wire  4 F BranchCtl [3:0] $end
    $var wire  3 S funct3 [2:0] $end
    $var wire  1 R funct7 $end
   $upscope $end
   $scope module m_Adder_1 $end
    $var wire 32 C a [31:0] $end
    $var wire 32 '! b [31:0] $end
    $var wire 32 D sum [31:0] $end
   $upscope $end
   $scope module m_BranchComp $end
    $var wire 32 Y A [31:0] $end
    $var wire 32 Z B [31:0] $end
    $var wire  4 F BranchCtl [3:0] $end
    $var wire  1 "! BranchOut $end
   $upscope $end
   $scope module m_Control $end
    $var wire  2 O ALUOp [1:0] $end
    $var wire  1 L branch $end
    $var wire  1 G immUse $end
    $var wire  1 M jump $end
    $var wire  1 J memRead $end
    $var wire  1 K memWrite $end
    $var wire  1 H memtoReg $end
    $var wire  7 T opcode [6:0] $end
    $var wire  1 N pcUse $end
    $var wire  1 I regWrite $end
   $upscope $end
   $scope module m_DataMemory $end
    $var wire 32 ] address [31:0] $end
    $var wire  1 ^ clk $end
    $var wire  1 J memRead $end
    $var wire  1 K memWrite $end
    $var wire 32 %! readData [31:0] $end
    $var wire  1 _ rst $end
    $var wire 32 Z writeData [31:0] $end
   $upscope $end
   $scope module m_ImmGen $end
    $var wire 32 P imm [31:0] $end
    $var wire 32 E inst [31:0] $end
    $var wire  7 T opcode [6:0] $end
   $upscope $end
   $scope module m_InstMem $end
    $var wire 32 E inst [31:0] $end
    $var wire 32 C readAddr [31:0] $end
   $upscope $end
   $scope module m_Mux1_ALU $end
    $var wire 32 [ out [31:0] $end
    $var wire 32 Y s0 [31:0] $end
    $var wire 32 C s1 [31:0] $end
    $var wire  1 N sel $end
    $var wire 32 (! size [31:0] $end
   $upscope $end
   $scope module m_Mux1_WriteData $end
    $var wire 32 #! out [31:0] $end
    $var wire 32 ] s0 [31:0] $end
    $var wire 32 %! s1 [31:0] $end
    $var wire  1 H sel $end
    $var wire 32 (! size [31:0] $end
   $upscope $end
   $scope module m_Mux2_ALU $end
    $var wire 32 \ out [31:0] $end
    $var wire 32 Z s0 [31:0] $end
    $var wire 32 P s1 [31:0] $end
    $var wire  1 G sel $end
    $var wire 32 (! size [31:0] $end
   $upscope $end
   $scope module m_Mux2_WriteData $end
    $var wire 32 $! out [31:0] $end
    $var wire 32 #! s0 [31:0] $end
    $var wire 32 D s1 [31:0] $end
    $var wire  1 M sel $end
    $var wire 32 (! size [31:0] $end
   $upscope $end
   $scope module m_Mux_PC $end
    $var wire 32 X out [31:0] $end
    $var wire 32 D s0 [31:0] $end
    $var wire 32 ] s1 [31:0] $end
    $var wire  1 &! sel $end
    $var wire 32 (! size [31:0] $end
   $upscope $end
   $scope module m_PC $end
    $var wire  1 ^ clk $end
    $var wire 32 X pc_i [31:0] $end
    $var wire 32 C pc_o [31:0] $end
    $var wire  1 _ rst $end
   $upscope $end
   $scope module m_Register $end
    $var wire  1 ^ clk $end
    $var wire 32 Y readData1 [31:0] $end
    $var wire 32 Z readData2 [31:0] $end
    $var wire  5 U readReg1 [4:0] $end
    $var wire  5 V readReg2 [4:0] $end
    $var wire  1 I regWrite $end
    $var wire 32 # regs[0] [31:0] $end
    $var wire 32 - regs[10] [31:0] $end
    $var wire 32 . regs[11] [31:0] $end
    $var wire 32 / regs[12] [31:0] $end
    $var wire 32 0 regs[13] [31:0] $end
    $var wire 32 1 regs[14] [31:0] $end
    $var wire 32 2 regs[15] [31:0] $end
    $var wire 32 3 regs[16] [31:0] $end
    $var wire 32 4 regs[17] [31:0] $end
    $var wire 32 5 regs[18] [31:0] $end
    $var wire 32 6 regs[19] [31:0] $end
    $var wire 32 $ regs[1] [31:0] $end
    $var wire 32 7 regs[20] [31:0] $end
    $var wire 32 8 regs[21] [31:0] $end
    $var wire 32 9 regs[22] [31:0] $end
    $var wire 32 : regs[23] [31:0] $end
    $var wire 32 ; regs[24] [31:0] $end
    $var wire 32 < regs[25] [31:0] $end
    $var wire 32 = regs[26] [31:0] $end
    $var wire 32 > regs[27] [31:0] $end
    $var wire 32 ? regs[28] [31:0] $end
    $var wire 32 @ regs[29] [31:0] $end
    $var wire 32 % regs[2] [31:0] $end
    $var wire 32 A regs[30] [31:0] $end
    $var wire 32 B regs[31] [31:0] $end
    $var wire 32 & regs[3] [31:0] $end
    $var wire 32 ' regs[4] [31:0] $end
    $var wire 32 ( regs[5] [31:0] $end
    $var wire 32 ) regs[6] [31:0] $end
    $var wire 32 * regs[7] [31:0] $end
    $var wire 32 + regs[8] [31:0] $end
    $var wire 32 , regs[9] [31:0] $end
    $var wire  1 _ rst $end
    $var wire 32 $! writeData [31:0] $end
    $var wire  5 W writeReg [4:0] $end
   $upscope $end
  $upscope $end
 $upscope $end
$enddefinitions $end


#0
b00000000000000000000000000000000 #
b00000000000000000000000000000000 $
b00000000000000000000000000000000 %
b00000000000000000000000000000000 &
b00000000000000000000000000000000 '
b00000000000000000000000000000000 (
b00000000000000000000000000000000 )
b00000000000000000000000000000000 *
b00000000000000000000000000000000 +
b00000000000000000000000000000000 ,
b00000000000000000000000000000000 -
b00000000000000000000000000000000 .
b00000000000000000000000000000000 /
b00000000000000000000000000000000 0
b00000000000000000000000000000000 1
b00000000000000000000000000000000 2
b00000000000000000000000000000000 3
b00000000000000000000000000000000 4
b00000000000000000000000000000000 5
b00000000000000000000000000000000 6
b00000000000000000000000000000000 7
b00000000000000000000000000000000 8
b00000000000000000000000000000000 9
b00000000000000000000000000000000 :
b00000000000000000000000000000000 ;
b00000000000000000000000000000000 <
b00000000000000000000000000000000 =
b00000000000000000000000000000000 >
b00000000000000000000000000000000 ?
b00000000000000000000000000000000 @
b00000000000000000000000000000000 A
b00000000000000000000000000000000 B
b00000000000000000000000000000000 C
b00000000000000000000000000000100 D
b00000000010000000000011000010011 E
b1100 F
1G
0H
1I
0J
0K
0L
0M
0N
b11 O
b00000000000000000000000000000100 P
b0010 Q
0R
b000 S
b0010011 T
b00000 U
b00100 V
b01100 W
b00000000000000000000000000000100 X
b00000000000000000000000000000000 Y
b00000000000000000000000000000000 Z
b00000000000000000000000000000000 [
b00000000000000000000000000000100 \
b00000000000000000000000000000100 ]
0^
1_
b00000000000000000000000000000000 `
b00000000000000000000000000000000 a
b00000000000000000000000000000000 b
b00000000000000000000000000000000 c
b00000000000000000000000000000000 d
b00000000000000000000000000000000 e
b00000000000000000000000000000000 f
b00000000000000000000000000000000 g
b00000000000000000000000000000000 h
b00000000000000000000000000000000 i
b00000000000000000000000000000000 j
b00000000000000000000000000000000 k
b00000000000000000000000000000000 l
b00000000000000000000000000000000 m
b00000000000000000000000000000000 n
b00000000000000000000000000000000 o
b00000000000000000000000000000000 p
b00000000000000000000000000000000 q
b00000000000000000000000000000000 r
b00000000000000000000000000000000 s
b00000000000000000000000000000000 t
b00000000000000000000000000000000 u
b00000000000000000000000000000000 v
b00000000000000000000000000000000 w
b00000000000000000000000000000000 x
b00000000000000000000000000000000 y
b00000000000000000000000000000000 z
b00000000000000000000000000000000 {
b00000000000000000000000000000000 |
b00000000000000000000000000000000 }
b00000000000000000000000000000000 ~
b00000000000000000000000000000000 !!
1"!
b00000000000000000000000000000100 #!
b00000000000000000000000000000100 $!
b00000000000000000000000000000000 %!
0&!
b00000000000000000000000000000100 '!
b00000000000000000000000000100000 (!
#1
b00000000000000000000000010000000 %
1^
0_
b00000000000000000000000010000000 b
#2
b00000000000000000000000000000100 /
0^
1_
b00000000000000000000000000000100 l
#3
b00000000000000000000000000000100 C
b00000000000000000000000000001000 D
b00000000110000000000000011101111 E
1L
1M
1N
b00 O
b00000000000000000000000000001100 P
b1101111 T
b01100 V
b00001 W
b00000000000000000000000000010000 X
b00000000000000000000000000000100 Z
b00000000000000000000000000000100 [
b00000000000000000000000000001100 \
b00000000000000000000000000010000 ]
1^
0"!
b00000000000000000000000000010000 #!
b00000000000000000000000000001000 $!
1&!
#4
b00000000000000000000000000001000 $
0^
b00000000000000000000000000001000 a
#5
b00000000000000000000000000010000 C
b00000000000000000000000000010100 D
b11111111010000010000000100010011 E
0L
0M
0N
b11 O
b11111111111111111111111111110100 P
1R
b0010011 T
b00010 U
b10100 V
b00010 W
b00000000000000000000000000010100 X
b00000000000000000000000010000000 Y
b00000000000000000000000000000000 Z
b00000000000000000000000010000000 [
b11111111111111111111111111110100 \
b00000000000000000000000001110100 ]
1^
b00000000000000000000000001110100 #!
b00000000000000000000000001110100 $!
0&!
#6
b00000000000000000000000001110100 %
b00000000000000000000000001110100 Y
b00000000000000000000000001110100 [
b00000000000000000000000001101000 ]
0^
b00000000000000000000000001110100 b
b00000000000000000000000001101000 #!
b00000000000000000000000001101000 $!
#7
b00000000000000000000000000010100 C
b00000000000000000000000000011000 D
b00000000000100010010010000100011 E
b0000 F
0I
1K
b00 O
b00000000000000000000000000001000 P
0R
b010 S
b0100011 T
b00001 V
b01000 W
b00000000000000000000000000011000 X
b00000000000000000000000000001000 Z
b00000000000000000000000000001000 \
b00000000000000000000000001111100 ]
1^
b00000000000000000000000001111100 #!
b00000000000000000000000001111100 $!
#8
0^
#9
b00000000000000000000000000011000 C
b00000000000000000000000000011100 D
b00000000100000010010001000100011 E
b00000000000000000000000000000100 P
b01000 V
b00100 W
b00000000000000000000000000011100 X
b00000000000000000000000000000000 Z
b00000000000000000000000000000100 \
b00000000000000000000000001111000 ]
1^
b00000000000000000000000001111000 #!
b00000000000000000000000001111000 $!
#10
0^
#11
b00000000000000000000000000011100 C
b00000000000000000000000000100000 D
b00000000000000000000010100010011 E
b1100 F
1I
0K
b11 O
b00000000000000000000000000000000 P
b000 S
b0010011 T
b00000 U
b00000 V
b01010 W
b00000000000000000000000000100000 X
b00000000000000000000000000000000 Y
b00000000000000000000000000000000 [
b00000000000000000000000000000000 \
b00000000000000000000000000000000 ]
1^
1"!
b00000000000000000000000000000000 #!
b00000000000000000000000000000000 $!
#12
0^
#13
b00000000000000000000000000100000 C
b00000000000000000000000000100100 D
b00000010000001100000011001100011 E
0I
1L
1N
b00 O
b00000000000000000000000000101100 P
b1100011 T
b01100 U
b01100 W
b00000000000000000000000000100100 X
b00000000000000000000000000000100 Y
b00000000000000000000000000100000 [
b00000000000000000000000000101100 \
b00000000000000000000000001001100 ]
1^
0"!
b00000000000000000000000001001100 #!
b00000000000000000000000001001100 $!
#14
0^
#15
b00000000000000000000000000100100 C
b00000000000000000000000000101000 D
b00000000000101010000010100010011 E
1I
0L
0N
b11 O
b00000000000000000000000000000001 P
b0010011 T
b01010 U
b00001 V
b01010 W
b00000000000000000000000000101000 X
b00000000000000000000000000000000 Y
b00000000000000000000000000001000 Z
b00000000000000000000000000000000 [
b00000000000000000000000000000001 \
b00000000000000000000000000000001 ]
1^
b00000000000000000000000000000001 #!
b00000000000000000000000000000001 $!
#16
b00000000000000000000000000000001 -
b00000000000000000000000000000001 Y
b00000000000000000000000000000001 [
b00000000000000000000000000000010 ]
0^
b00000000000000000000000000000001 j
b00000000000000000000000000000010 #!
b00000000000000000000000000000010 $!
#17
b00000000000000000000000000101000 C
b00000000000000000000000000101100 D
b00000010101001100000001001100011 E
0I
1L
1N
b00 O
b00000000000000000000000000100100 P
b1100011 T
b01100 U
b01010 V
b00100 W
b00000000000000000000000000101100 X
b00000000000000000000000000000100 Y
b00000000000000000000000000000001 Z
b00000000000000000000000000101000 [
b00000000000000000000000000100100 \
b00000000000000000000000001001100 ]
1^
b00000000000000000000000001001100 #!
b00000000000000000000000001001100 $!
#18
0^
#19
b00000000000000000000000000101100 C
b00000000000000000000000000110000 D
b11111111111101100000011000010011 E
1I
0L
0N
b11 O
b11111111111111111111111111111111 P
1R
b0010011 T
b11111 V
b01100 W
b00000000000000000000000000110000 X
b00000000000000000000000000000000 Z
b00000000000000000000000000000100 [
b11111111111111111111111111111111 \
b00000000000000000000000000000011 ]
1^
b00000000000000000000000000000011 #!
b00000000000000000000000000000011 $!
#20
b00000000000000000000000000000011 /
b00000000000000000000000000000011 Y
b00000000000000000000000000000011 [
b00000000000000000000000000000010 ]
0^
b00000000000000000000000000000011 l
b00000000000000000000000000000010 #!
b00000000000000000000000000000010 $!
#21
b00000000000000000000000000110000 C
b00000000000000000000000000110100 D
b00000000110000010010000000100011 E
b0000 F
0I
1K
b00 O
b00000000000000000000000000000000 P
0R
b010 S
b0100011 T
b00010 U
b01100 V
b00000 W
b00000000000000000000000000110100 X
b00000000000000000000000001110100 Y
b00000000000000000000000000000011 Z
b00000000000000000000000001110100 [
b00000000000000000000000000000000 \
b00000000000000000000000001110100 ]
1^
b00000000000000000000000001110100 #!
b00000000000000000000000001110100 $!
#22
0^
#23
b00000000000000000000000000110100 C
b00000000000000000000000000111000 D
b11111101110111111111000011101111 E
1I
0K
1L
1M
1N
b11111111111111111111111111011100 P
1R
b111 S
b1101111 T
b11111 U
b11101 V
b00001 W
b00000000000000000000000000010000 X
b00000000000000000000000000000000 Y
b00000000000000000000000000000000 Z
b00000000000000000000000000110100 [
b11111111111111111111111111011100 \
b00000000000000000000000000010000 ]
1^
b00000000000000000000000000010000 #!
b00000000000000000000000000111000 $!
1&!
#24
b00000000000000000000000000111000 $
0^
b00000000000000000000000000111000 a
#25
b00000000000000000000000000010000 C
b00000000000000000000000000010100 D
b11111111010000010000000100010011 E
b1100 F
0L
0M
0N
b11 O
b11111111111111111111111111110100 P
b000 S
b0010011 T
b00010 U
b10100 V
b00010 W
b00000000000000000000000000010100 X
b00000000000000000000000001110100 Y
b00000000000000000000000001110100 [
b11111111111111111111111111110100 \
b00000000000000000000000001101000 ]
1^
b00000000000000000000000001101000 #!
b00000000000000000000000001101000 $!
0&!
#26
b00000000000000000000000001101000 %
b00000000000000000000000001101000 Y
b00000000000000000000000001101000 [
b00000000000000000000000001011100 ]
0^
b00000000000000000000000001101000 b
b00000000000000000000000001011100 #!
b00000000000000000000000001011100 $!
#27
b00000000000000000000000000010100 C
b00000000000000000000000000011000 D
b00000000000100010010010000100011 E
b0000 F
0I
1K
b00 O
b00000000000000000000000000001000 P
0R
b010 S
b0100011 T
b00001 V
b01000 W
b00000000000000000000000000011000 X
b00000000000000000000000000111000 Z
b00000000000000000000000000001000 \
b00000000000000000000000001110000 ]
1^
b00000000000000000000000001110000 #!
b00000000000000000000000001110000 $!
#28
0^
#29
b00000000000000000000000000011000 C
b00000000000000000000000000011100 D
b00000000100000010010001000100011 E
b00000000000000000000000000000100 P
b01000 V
b00100 W
b00000000000000000000000000011100 X
b00000000000000000000000000000000 Z
b00000000000000000000000000000100 \
b00000000000000000000000001101100 ]
1^
b00000000000000000000000001101100 #!
b00000000000000000000000001101100 $!
#30
0^
#31
b00000000000000000000000000011100 C
b00000000000000000000000000100000 D
b00000000000000000000010100010011 E
b1100 F
1I
0K
b11 O
b00000000000000000000000000000000 P
b000 S
b0010011 T
b00000 U
b00000 V
b01010 W
b00000000000000000000000000100000 X
b00000000000000000000000000000000 Y
b00000000000000000000000000000000 [
b00000000000000000000000000000000 \
b00000000000000000000000000000000 ]
1^
1"!
b00000000000000000000000000000000 #!
b00000000000000000000000000000000 $!
#32
b00000000000000000000000000000000 -
0^
b00000000000000000000000000000000 j
#33
b00000000000000000000000000100000 C
b00000000000000000000000000100100 D
b00000010000001100000011001100011 E
0I
1L
1N
b00 O
b00000000000000000000000000101100 P
b1100011 T
b01100 U
b01100 W
b00000000000000000000000000100100 X
b00000000000000000000000000000011 Y
b00000000000000000000000000100000 [
b00000000000000000000000000101100 \
b00000000000000000000000001001100 ]
1^
0"!
b00000000000000000000000001001100 #!
b00000000000000000000000001001100 $!
#34
0^
#35
b00000000000000000000000000100100 C
b00000000000000000000000000101000 D
b00000000000101010000010100010011 E
1I
0L
0N
b11 O
b00000000000000000000000000000001 P
b0010011 T
b01010 U
b00001 V
b01010 W
b00000000000000000000000000101000 X
b00000000000000000000000000000000 Y
b00000000000000000000000000111000 Z
b00000000000000000000000000000000 [
b00000000000000000000000000000001 \
b00000000000000000000000000000001 ]
1^
b00000000000000000000000000000001 #!
b00000000000000000000000000000001 $!
#36
b00000000000000000000000000000001 -
b00000000000000000000000000000001 Y
b00000000000000000000000000000001 [
b00000000000000000000000000000010 ]
0^
b00000000000000000000000000000001 j
b00000000000000000000000000000010 #!
b00000000000000000000000000000010 $!
#37
b00000000000000000000000000101000 C
b00000000000000000000000000101100 D
b00000010101001100000001001100011 E
0I
1L
1N
b00 O
b00000000000000000000000000100100 P
b1100011 T
b01100 U
b01010 V
b00100 W
b00000000000000000000000000101100 X
b00000000000000000000000000000011 Y
b00000000000000000000000000000001 Z
b00000000000000000000000000101000 [
b00000000000000000000000000100100 \
b00000000000000000000000001001100 ]
1^
b00000000000000000000000001001100 #!
b00000000000000000000000001001100 $!
#38
0^
#39
b00000000000000000000000000101100 C
b00000000000000000000000000110000 D
b11111111111101100000011000010011 E
1I
0L
0N
b11 O
b11111111111111111111111111111111 P
1R
b0010011 T
b11111 V
b01100 W
b00000000000000000000000000110000 X
b00000000000000000000000000000000 Z
b00000000000000000000000000000011 [
b11111111111111111111111111111111 \
b00000000000000000000000000000010 ]
1^
b00000000000000000000000000000010 #!
b00000000000000000000000000000010 $!
#40
b00000000000000000000000000000010 /
b00000000000000000000000000000010 Y
b00000000000000000000000000000010 [
b00000000000000000000000000000001 ]
0^
b00000000000000000000000000000010 l
b00000000000000000000000000000001 #!
b00000000000000000000000000000001 $!
#41
b00000000000000000000000000110000 C
b00000000000000000000000000110100 D
b00000000110000010010000000100011 E
b0000 F
0I
1K
b00 O
b00000000000000000000000000000000 P
0R
b010 S
b0100011 T
b00010 U
b01100 V
b00000 W
b00000000000000000000000000110100 X
b00000000000000000000000001101000 Y
b00000000000000000000000000000010 Z
b00000000000000000000000001101000 [
b00000000000000000000000000000000 \
b00000000000000000000000001101000 ]
1^
b00000000000000000000000001101000 #!
b00000000000000000000000001101000 $!
#42
0^
#43
b00000000000000000000000000110100 C
b00000000000000000000000000111000 D
b11111101110111111111000011101111 E
1I
0K
1L
1M
1N
b11111111111111111111111111011100 P
1R
b111 S
b1101111 T
b11111 U
b11101 V
b00001 W
b00000000000000000000000000010000 X
b00000000000000000000000000000000 Y
b00000000000000000000000000000000 Z
b00000000000000000000000000110100 [
b11111111111111111111111111011100 \
b00000000000000000000000000010000 ]
1^
b00000000000000000000000000010000 #!
b00000000000000000000000000111000 $!
1&!
#44
0^
#45
b00000000000000000000000000010000 C
b00000000000000000000000000010100 D
b11111111010000010000000100010011 E
b1100 F
0L
0M
0N
b11 O
b11111111111111111111111111110100 P
b000 S
b0010011 T
b00010 U
b10100 V
b00010 W
b00000000000000000000000000010100 X
b00000000000000000000000001101000 Y
b00000000000000000000000001101000 [
b11111111111111111111111111110100 \
b00000000000000000000000001011100 ]
1^
b00000000000000000000000001011100 #!
b00000000000000000000000001011100 $!
0&!
#46
b00000000000000000000000001011100 %
b00000000000000000000000001011100 Y
b00000000000000000000000001011100 [
b00000000000000000000000001010000 ]
0^
b00000000000000000000000001011100 b
b00000000000000000000000001010000 #!
b00000000000000000000000001010000 $!
#47
b00000000000000000000000000010100 C
b00000000000000000000000000011000 D
b00000000000100010010010000100011 E
b0000 F
0I
1K
b00 O
b00000000000000000000000000001000 P
0R
b010 S
b0100011 T
b00001 V
b01000 W
b00000000000000000000000000011000 X
b00000000000000000000000000111000 Z
b00000000000000000000000000001000 \
b00000000000000000000000001100100 ]
1^
b00000000000000000000000001100100 #!
b00000000000000000000000001100100 $!
#48
0^
#49
b00000000000000000000000000011000 C
b00000000000000000000000000011100 D
b00000000100000010010001000100011 E
b00000000000000000000000000000100 P
b01000 V
b00100 W
b00000000000000000000000000011100 X
b00000000000000000000000000000000 Z
b00000000000000000000000000000100 \
b00000000000000000000000001100000 ]
1^
b00000000000000000000000001100000 #!
b00000000000000000000000001100000 $!
#50
0^
#51
b00000000000000000000000000011100 C
b00000000000000000000000000100000 D
b00000000000000000000010100010011 E
b1100 F
1I
0K
b11 O
b00000000000000000000000000000000 P
b000 S
b0010011 T
b00000 U
b00000 V
b01010 W
b00000000000000000000000000100000 X
b00000000000000000000000000000000 Y
b00000000000000000000000000000000 [
b00000000000000000000000000000000 \
b00000000000000000000000000000000 ]
1^
1"!
b00000000000000000000000000000000 #!
b00000000000000000000000000000000 $!
#52
b00000000000000000000000000000000 -
0^
b00000000000000000000000000000000 j
#53
b00000000000000000000000000100000 C
b00000000000000000000000000100100 D
b00000010000001100000011001100011 E
0I
1L
1N
b00 O
b00000000000000000000000000101100 P
b1100011 T
b01100 U
b01100 W
b00000000000000000000000000100100 X
b00000000000000000000000000000010 Y
b00000000000000000000000000100000 [
b00000000000000000000000000101100 \
b00000000000000000000000001001100 ]
1^
0"!
b00000000000000000000000001001100 #!
b00000000000000000000000001001100 $!
#54
0^
#55
b00000000000000000000000000100100 C
b00000000000000000000000000101000 D
b00000000000101010000010100010011 E
1I
0L
0N
b11 O
b00000000000000000000000000000001 P
b0010011 T
b01010 U
b00001 V
b01010 W
b00000000000000000000000000101000 X
b00000000000000000000000000000000 Y
b00000000000000000000000000111000 Z
b00000000000000000000000000000000 [
b00000000000000000000000000000001 \
b00000000000000000000000000000001 ]
1^
b00000000000000000000000000000001 #!
b00000000000000000000000000000001 $!
#56
b00000000000000000000000000000001 -
b00000000000000000000000000000001 Y
b00000000000000000000000000000001 [
b00000000000000000000000000000010 ]
0^
b00000000000000000000000000000001 j
b00000000000000000000000000000010 #!
b00000000000000000000000000000010 $!
#57
b00000000000000000000000000101000 C
b00000000000000000000000000101100 D
b00000010101001100000001001100011 E
0I
1L
1N
b00 O
b00000000000000000000000000100100 P
b1100011 T
b01100 U
b01010 V
b00100 W
b00000000000000000000000000101100 X
b00000000000000000000000000000010 Y
b00000000000000000000000000000001 Z
b00000000000000000000000000101000 [
b00000000000000000000000000100100 \
b00000000000000000000000001001100 ]
1^
b00000000000000000000000001001100 #!
b00000000000000000000000001001100 $!
#58
0^
#59
b00000000000000000000000000101100 C
b00000000000000000000000000110000 D
b11111111111101100000011000010011 E
1I
0L
0N
b11 O
b11111111111111111111111111111111 P
1R
b0010011 T
b11111 V
b01100 W
b00000000000000000000000000110000 X
b00000000000000000000000000000000 Z
b00000000000000000000000000000010 [
b11111111111111111111111111111111 \
b00000000000000000000000000000001 ]
1^
b00000000000000000000000000000001 #!
b00000000000000000000000000000001 $!
#60
b00000000000000000000000000000001 /
b00000000000000000000000000000001 Y
b00000000000000000000000000000001 [
b00000000000000000000000000000000 ]
0^
b00000000000000000000000000000001 l
b00000000000000000000000000000000 #!
b00000000000000000000000000000000 $!
#61
b00000000000000000000000000110000 C
b00000000000000000000000000110100 D
b00000000110000010010000000100011 E
b0000 F
0I
1K
b00 O
b00000000000000000000000000000000 P
0R
b010 S
b0100011 T
b00010 U
b01100 V
b00000 W
b00000000000000000000000000110100 X
b00000000000000000000000001011100 Y
b00000000000000000000000000000001 Z
b00000000000000000000000001011100 [
b00000000000000000000000000000000 \
b00000000000000000000000001011100 ]
1^
b00000000000000000000000001011100 #!
b00000000000000000000000001011100 $!
#62
0^
#63
b00000000000000000000000000110100 C
b00000000000000000000000000111000 D
b11111101110111111111000011101111 E
1I
0K
1L
1M
1N
b11111111111111111111111111011100 P
1R
b111 S
b1101111 T
b11111 U
b11101 V
b00001 W
b00000000000000000000000000010000 X
b00000000000000000000000000000000 Y
b00000000000000000000000000000000 Z
b00000000000000000000000000110100 [
b11111111111111111111111111011100 \
b00000000000000000000000000010000 ]
1^
b00000000000000000000000000010000 #!
b00000000000000000000000000111000 $!
1&!
#64
0^
#65
b00000000000000000000000000010000 C
b00000000000000000000000000010100 D
b11111111010000010000000100010011 E
b1100 F
0L
0M
0N
b11 O
b11111111111111111111111111110100 P
b000 S
b0010011 T
b00010 U
b10100 V
b00010 W
b00000000000000000000000000010100 X
b00000000000000000000000001011100 Y
b00000000000000000000000001011100 [
b11111111111111111111111111110100 \
b00000000000000000000000001010000 ]
1^
b00000000000000000000000001010000 #!
b00000000000000000000000001010000 $!
0&!
#66
b00000000000000000000000001010000 %
b00000000000000000000000001010000 Y
b00000000000000000000000001010000 [
b00000000000000000000000001000100 ]
0^
b00000000000000000000000001010000 b
b00000000000000000000000001000100 #!
b00000000000000000000000001000100 $!
#67
b00000000000000000000000000010100 C
b00000000000000000000000000011000 D
b00000000000100010010010000100011 E
b0000 F
0I
1K
b00 O
b00000000000000000000000000001000 P
0R
b010 S
b0100011 T
b00001 V
b01000 W
b00000000000000000000000000011000 X
b00000000000000000000000000111000 Z
b00000000000000000000000000001000 \
b00000000000000000000000001011000 ]
1^
b00000000000000000000000001011000 #!
b00000000000000000000000001011000 $!
#68
0^
#69
b00000000000000000000000000011000 C
b00000000000000000000000000011100 D
b00000000100000010010001000100011 E
b00000000000000000000000000000100 P
b01000 V
b00100 W
b00000000000000000000000000011100 X
b00000000000000000000000000000000 Z
b00000000000000000000000000000100 \
b00000000000000000000000001010100 ]
1^
b00000000000000000000000001010100 #!
b00000000000000000000000001010100 $!
#70
0^
#71
b00000000000000000000000000011100 C
b00000000000000000000000000100000 D
b00000000000000000000010100010011 E
b1100 F
1I
0K
b11 O
b00000000000000000000000000000000 P
b000 S
b0010011 T
b00000 U
b00000 V
b01010 W
b00000000000000000000000000100000 X
b00000000000000000000000000000000 Y
b00000000000000000000000000000000 [
b00000000000000000000000000000000 \
b00000000000000000000000000000000 ]
1^
1"!
b00000000000000000000000000000000 #!
b00000000000000000000000000000000 $!
#72
b00000000000000000000000000000000 -
0^
b00000000000000000000000000000000 j
